<svg xmlns="http://www.w3.org/2000/svg" width="150" height="30" viewBox="0 0 150 30">
  <g id="img_logo_gold" transform="translate(-137.48 -240.945)">
    <rect id="Rectangle_1008" data-name="Rectangle 1008" width="150" height="30" transform="translate(137.48 240.945)" fill="none"/>
    <path id="Path_2228" data-name="Path 2228" d="M514.883,273.76h-1.149a6.06,6.06,0,1,1-1.775-4.285,6.035,6.035,0,0,1,1.775,4.285h2.3a8.358,8.358,0,1,0-2.448,5.911,8.337,8.337,0,0,0,2.448-5.911Z" transform="translate(-266.099 -17.986)" fill="#fbc563"/>
    <path id="Path_2229" data-name="Path 2229" d="M161.786,282.266a1.144,1.144,0,0,1-1.164-1.164V267.334h-5.1a1.165,1.165,0,1,1,0-2.329h12.52a1.165,1.165,0,1,1,0,2.329h-5.1V281.1a1.144,1.144,0,0,1-1.165,1.164" transform="translate(-12.415 -17.694)" fill="#fbc563"/>
    <path id="Path_2230" data-name="Path 2230" d="M638.831,282.059a1.144,1.144,0,0,1-1.165-1.164V267.127h-5.1a1.165,1.165,0,1,1,0-2.329h12.52a1.165,1.165,0,1,1,0,2.329H640v13.768a1.145,1.145,0,0,1-1.164,1.164" transform="translate(-363.242 -17.542)" fill="#fbc563"/>
    <path id="Path_2231" data-name="Path 2231" d="M267.082,282.4a1.143,1.143,0,0,1-1.165-1.164v-9.488a6.643,6.643,0,0,1,.5-2.548,6.459,6.459,0,0,1,1.426-2.14,6.668,6.668,0,0,1,2.14-1.441,6.62,6.62,0,0,1,5.1,0,6.741,6.741,0,0,1,3.581,3.581,6.627,6.627,0,0,1,0,5.1,6.654,6.654,0,0,1-1.442,2.14,6.452,6.452,0,0,1-2.139,1.427,6.649,6.649,0,0,1-2.548.5,6.476,6.476,0,0,1-2.286-.408,6.76,6.76,0,0,1-1.994-1.164v4.451a1.143,1.143,0,0,1-1.164,1.164m1.164-10.536a4.345,4.345,0,0,0,.364,1.63,4.2,4.2,0,0,0,.918,1.325,4.359,4.359,0,0,0,4.687.874,4.254,4.254,0,0,0,2.286-2.286,4.194,4.194,0,0,0,.334-1.659,4.28,4.28,0,0,0-4.309-4.309,4.293,4.293,0,0,0-3.013,1.237,4.452,4.452,0,0,0-.918,1.354,4.044,4.044,0,0,0-.349,1.659v.175Z" transform="translate(-94.454 -17.774)" fill="#fbc563"/>
    <path id="Path_2232" data-name="Path 2232" d="M446.918,282.4a1.143,1.143,0,0,1-1.165-1.164v-9.488a6.644,6.644,0,0,1,.5-2.548,6.459,6.459,0,0,1,1.426-2.14,6.667,6.667,0,0,1,2.14-1.441,6.62,6.62,0,0,1,5.1,0,6.74,6.74,0,0,1,3.581,3.581,6.627,6.627,0,0,1,0,5.1,6.655,6.655,0,0,1-1.442,2.14,6.45,6.45,0,0,1-2.139,1.427,6.648,6.648,0,0,1-2.548.5,6.475,6.475,0,0,1-2.286-.408,6.754,6.754,0,0,1-1.994-1.164v4.451a1.144,1.144,0,0,1-1.165,1.164m1.165-10.536a4.344,4.344,0,0,0,.364,1.63,4.194,4.194,0,0,0,.918,1.325,4.359,4.359,0,0,0,4.687.874,4.253,4.253,0,0,0,2.286-2.286,4.194,4.194,0,0,0,.335-1.659,4.28,4.28,0,0,0-4.309-4.309,4.2,4.2,0,0,0-1.66.335,4.243,4.243,0,0,0-1.354.9,4.451,4.451,0,0,0-.918,1.354,4.044,4.044,0,0,0-.349,1.659v.175Z" transform="translate(-226.709 -17.774)" fill="#fbc563"/>
    <path id="Path_2233" data-name="Path 2233" d="M221.644,269.083a6.454,6.454,0,0,0-1.426-2.14,6.668,6.668,0,0,0-2.14-1.441,7,7,0,0,0-5.221.032,6.666,6.666,0,0,0-2.14,1.441,6.467,6.467,0,0,0-1.427,2.14,6.647,6.647,0,0,0-.5,2.547v9.488a1.165,1.165,0,1,0,2.329,0V276.7a6.748,6.748,0,0,0,1.994,1.165,6.482,6.482,0,0,0,2.286.407,6.678,6.678,0,0,0,2.187-.367c.075-.025.151-.045.225-.073.02-.007.038-.019.058-.027s.053-.017.078-.028a6.5,6.5,0,0,0,.689-.336,6.778,6.778,0,0,0,1.169-.774v4.451a1.165,1.165,0,1,0,2.329,0V271.63a6.639,6.639,0,0,0-.5-2.547m-6.114,6.827a4.268,4.268,0,0,1-3.974-2.62,4.2,4.2,0,0,1-.334-1.66,4.263,4.263,0,0,1,2.611-3.969,4.2,4.2,0,0,1,1.572-.308,4.3,4.3,0,0,1,3.057,1.252,4.295,4.295,0,0,1,1.252,3.057,4.2,4.2,0,0,1-.335,1.66,4.254,4.254,0,0,1-2.286,2.286,4.142,4.142,0,0,1-.726.224,4.436,4.436,0,0,1-.837.079" transform="translate(-52.446 -17.685)" fill="#fbc563"/>
    <path id="Path_2234" data-name="Path 2234" d="M568.483,283a1.235,1.235,0,0,1-1.256-1.255V267.26a1.256,1.256,0,1,1,2.511,0v14.481A1.234,1.234,0,0,1,568.483,283" transform="translate(-316.043 -18.43)" fill="#fbc563"/>
    <path id="Path_2235" data-name="Path 2235" d="M595.19,268.876a6.466,6.466,0,0,0-1.427-2.14,6.673,6.673,0,0,0-2.14-1.441,6.5,6.5,0,0,0-2.548-.509,6.578,6.578,0,0,0-1.692.218,6.51,6.51,0,0,0-.982.323,6.676,6.676,0,0,0-2.14,1.441,6.463,6.463,0,0,0-1.427,2.14,6.648,6.648,0,0,0-.5,2.548v9.487a1.165,1.165,0,1,0,2.329,0v-4.451l.008.006v-5.125a4.234,4.234,0,0,1,3.457-4.147c.108-.021.216-.038.326-.05h.013a4.293,4.293,0,0,1,.476-.029c.053,0,.106.006.158.007h.036a4.232,4.232,0,0,1,4.22,4.22v7.751c0,.052-.006.1-.008.154v1.632a1.165,1.165,0,1,0,2.329,0v-9.488a6.649,6.649,0,0,0-.5-2.548" transform="translate(-327.157 -17.533)" fill="#fbc563"/>
    <g id="Group_713" data-name="Group 713" transform="translate(186.738 240.945)">
      <path id="Path_2236" data-name="Path 2236" d="M374.436,343.232c0,.4-1.585.729-3.54.729s-3.54-.326-3.54-.729,1.585-.729,3.54-.729,3.54.326,3.54.729" transform="translate(-355.792 -315.633)" fill="#fbc563"/>
      <path id="Path_2237" data-name="Path 2237" d="M353.019,255.945h-.63a13.74,13.74,0,1,1-4.024-9.715,13.693,13.693,0,0,1,4.024,9.715h1.261a15,15,0,1,0-15,15,15,15,0,0,0,15-15Z" transform="translate(-323.65 -240.945)" fill="#fbc563"/>
      <path id="Path_2238" data-name="Path 2238" d="M376.794,333.009a.412.412,0,0,0,.078-.479.476.476,0,0,0-.442-.3.422.422,0,0,0-.314.126c-.193.188-.388.374-.576.566a.453.453,0,0,0,0,.673.428.428,0,0,0,.642.023,7.972,7.972,0,0,0,.612-.61" transform="translate(-361.7 -308.079)" fill="#fbc563"/>
      <path id="Path_2239" data-name="Path 2239" d="M370.266,326.393a.473.473,0,0,0,.15-.342.492.492,0,0,0-.254-.416.4.4,0,0,0-.5.034,8.5,8.5,0,0,0-.671.667.437.437,0,0,0,.086.637.462.462,0,0,0,.61-.014c.19-.19.388-.372.575-.565" transform="translate(-356.922 -303.175)" fill="#fbc563"/>
      <path id="Path_2240" data-name="Path 2240" d="M379.284,335.638c-.209.2-.42.4-.617.617a1.051,1.051,0,0,0-.134.276.519.519,0,0,0,.355.472.413.413,0,0,0,.455-.1c.207-.2.41-.4.6-.6a.47.47,0,0,0-.663-.664" transform="translate(-364.012 -310.495)" fill="#fbc563"/>
      <path id="Path_2241" data-name="Path 2241" d="M373.734,329.24a.46.46,0,0,0-.713-.281,7.345,7.345,0,0,0-.67.652.418.418,0,0,0-.058.507.452.452,0,0,0,.435.261.4.4,0,0,0,.325-.138c.18-.177.357-.356.536-.535a.477.477,0,0,0,.143-.466" transform="translate(-359.38 -305.605)" fill="#fbc563"/>
      <path id="Path_2242" data-name="Path 2242" d="M383.312,268.8a9.374,9.374,0,0,0-7.373-15.162h-.056v4.483l.056,0h0a4.718,4.718,0,0,1,3.711,7.631h.006l-.056.062c-.1.126-.31.4-.425.516l-.406.445v-.007h0l-4.553,4.481.2.111h0l0,0a.911.911,0,0,0,.176.087,2.447,2.447,0,0,0,.556.138h0a.882.882,0,0,0,.559-.208,4.627,4.627,0,0,0,.835-.785.62.62,0,0,1,.435-.22.588.588,0,0,1,.451.185q.89.9,1.779,1.809c.2.2.279.315.473.507h0l.654-.712h0l2.025-2.205c.228-.228.641-.774.844-1.025l.112-.124h-.012Z" transform="translate(-360.837 -250.281)" fill="#fbc563"/>
      <path id="Path_2243" data-name="Path 2243" d="M356,270.816c-.179-.185-.343-.2-.552.012-.247.252-.493.506-.76.736a1.252,1.252,0,0,1-1.418.205c-.243-.11-.468-.261-.716-.4.7-.665,1.18-1.127,1.865-1.773-.255-.265-.471-.482-.7-.726l-2.2-2.4c-.115-.115-.4-.488-.507-.614l-.056-.062h.006a4.715,4.715,0,0,1,3.33-7.612V253.69a9.37,9.37,0,0,0-6.993,15.149h-.012l.112.124c.2.251.78.993,1.008,1.221l2.47,2.627c.138.154.266.262.452.475a.1.1,0,0,0,.108,0c.205-.2.4-.413.608-.613a.691.691,0,0,1,.877-.1,3.027,3.027,0,0,1,.38.326q1.337,1.279,2.671,2.562a.448.448,0,1,0,.588-.676l-.2-.2c-.385-.37-1.071-1.028-1.271-1.214-.282-.263-.156-.4-.156-.389.146-.078.2-.01.2-.01l.358.36a.325.325,0,0,1,.072.056c.4.406.809.8,1.206,1.212a.473.473,0,0,0,.662-.025.448.448,0,0,0-.058-.638c-.362-.364-.727-.727-1.09-1.09-.16-.16-.321-.319-.479-.48a.117.117,0,0,1,0-.183c.056-.057.113-.075.179-.011s.127.116.189.176c.447.439.9.878,1.34,1.321a.459.459,0,0,0,.622.006.428.428,0,0,0,.007-.635C357.429,272.3,356.72,271.553,356,270.816Z" transform="translate(-339.57 -250.318)" fill="#fbc563"/>
    </g>
  </g>
</svg>
